{
  "alphabet": [
    "X",
    "Y"
  ],
  "constants": [
    "F",
    "+",
    "-"
  ],
  "axiom": "FX",
  "rules": {
    "X": "X+YF+",
    "Y": "−FX−Y"
  },
  "angle": 90,
  "dist": 10,
  "drawingrules": {
    "F": "forward",
    "-": "left",
    "+": "right"
  }
}
