{
  "alphabet": [
    "F",
    "X",
    "Y"
  ],
  "constants": [
    "+",
    "-"
  ],
  "axiom": "X",
  "rules": {
    "X": "-YF+XFX+FY-",
    "Y": "+XF-YFY-FX+",
    "F": ""
  },
  "angle": 90,
  "dist": 10,
  "drawingrules": {
    "F": "forward",
    "-": "left",
    "+": "right"
  }
}
