{
  "alphabet": ["X", "F"],
  "constants": ["+", "-", "[", "]"],
  "axiom": "X",
  "rules": {
    "X": "F[+X]F[-X]+X",
    "F": "FF"
  },
  "angle": 20,
  "dist": 10,
  "drawingrules": {
    "F": "forward",
    "-": "right",
    "+": "left",
    "[": "push",
    "]": "pop"
  }
}
